cpu-riscv.vcd
$date
	Sun Jan  7 17:07:03 2018
$end
$version
	Icarus Verilog
$end
$timescale
	1ps
$end
$scope module riscv_min_sooc_tb $end
$var reg 1 ! CLOCK_50 $end
$var reg 1 " rst $end
$scope module riscv_min_sopc0 $end
$var wire 1 ! clk $end
$var wire 1 " rst $end
$var wire 1 # rom_ce $end
$var wire 1 $ mem_we_i $end
$var wire 4 % mem_sel_i [3:0] $end
$var wire 32 & mem_data_o [31:0] $end
$var wire 32 ' mem_data_i [31:0] $end
$var wire 1 ( mem_ce_i $end
$var wire 32 ) mem_addr_i [31:0] $end
$var wire 32 * inst_addr [31:0] $end
$var wire 32 + inst [31:0] $end
$scope module data_ram0 $end
$var wire 1 ! clk $end
$var wire 1 $ we $end
$var wire 4 , sel [3:0] $end
$var wire 32 - data_i [31:0] $end
$var wire 1 ( ce $end
$var wire 32 . addr [31:0] $end
$var reg 32 / data_o [31:0] $end
$upscope $end
$scope module inst_rom0 $end
$var wire 1 # ce $end
$var wire 32 0 addr [31:0] $end
$var reg 32 1 inst [31:0] $end
$upscope $end
$scope module riscv0 $end
$var wire 1 ! clk $end
$var wire 32 2 ram_data_i [31:0] $end
$var wire 32 3 rom_addr_o [31:0] $end
$var wire 32 4 rom_data_i [31:0] $end
$var wire 1 " rst $end
$var wire 1 5 wb_wreg_i $end
$var wire 32 6 wb_wdata_i [31:0] $end
$var wire 5 7 wb_wd_i [4:0] $end
$var wire 1 8 stallreq_from_load $end
$var wire 1 9 stallreq_from_jump_branch $end
$var wire 6 : stall [5:0] $end
$var wire 1 # rom_ce_o $end
$var wire 2 ; reg2_read [1:0] $end
$var wire 32 < reg2_data [31:0] $end
$var wire 5 = reg2_addr [4:0] $end
$var wire 2 > reg1_read [1:0] $end
$var wire 32 ? reg1_data [31:0] $end
$var wire 5 @ reg1_addr [4:0] $end
$var wire 1 $ ram_we_o $end
$var wire 4 A ram_sel_o [3:0] $end
$var wire 32 B ram_data_o [31:0] $end
$var wire 1 ( ram_ce_o $end
$var wire 32 C ram_addr_o [31:0] $end
$var wire 32 D pc [31:0] $end
$var wire 1 E mem_wreg_o $end
$var wire 1 F mem_wreg_i $end
$var wire 32 G mem_wdata_o [31:0] $end
$var wire 32 H mem_wdata_i [31:0] $end
$var wire 5 I mem_wd_o [4:0] $end
$var wire 5 J mem_wd_i [4:0] $end
$var wire 32 K mem_reg2_i [31:0] $end
$var wire 32 L mem_mem_addr_i [31:0] $end
$var wire 8 M mem_aluop_i [7:0] $end
$var wire 1 N id_wreg_o $end
$var wire 5 O id_wd_o [4:0] $end
$var wire 32 P id_reg2_o [31:0] $end
$var wire 32 Q id_reg1_o [31:0] $end
$var wire 32 R id_pc_i [31:0] $end
$var wire 32 S id_link_address_o [31:0] $end
$var wire 32 T id_inst_o [31:0] $end
$var wire 32 U id_inst_i [31:0] $end
$var wire 1 V id_branch_flag_o $end
$var wire 3 W id_alusel_o [2:0] $end
$var wire 8 X id_aluop_o [7:0] $end
$var wire 1 Y ex_wreg_o $end
$var wire 1 Z ex_wreg_i $end
$var wire 32 [ ex_wdata_o [31:0] $end
$var wire 5 \ ex_wd_o [4:0] $end
$var wire 5 ] ex_wd_i [4:0] $end
$var wire 32 ^ ex_reg2_o [31:0] $end
$var wire 32 _ ex_reg2_i [31:0] $end
$var wire 32 ` ex_reg1_i [31:0] $end
$var wire 32 a ex_mem_addr_o [31:0] $end
$var wire 32 b ex_link_address_i [31:0] $end
$var wire 1 c ex_is_load_o $end
$var wire 32 d ex_inst_i [31:0] $end
$var wire 3 e ex_alusel_i [2:0] $end
$var wire 8 f ex_aluop_o [7:0] $end
$var wire 8 g ex_aluop_i [7:0] $end
$var wire 32 h branch_target_address [31:0] $end
$scope module ctrl0 $end
$var wire 1 " rst $end
$var wire 1 8 stallreq_from_load $end
$var wire 1 9 stallreq_from_jump_branch $end
$var reg 6 i stall [5:0] $end
$upscope $end
$scope module ex0 $end
$var wire 8 j aluop_o [7:0] $end
$var wire 32 k reg2_o [31:0] $end
$var wire 1 " rst $end
$var wire 1 Z wreg_i $end
$var wire 5 l wd_i [4:0] $end
$var wire 32 m result_sum [31:0] $end
$var wire 32 n reg2_i_mux [31:0] $end
$var wire 32 o reg2_i [31:0] $end
$var wire 1 p reg1_lt_reg2 $end
$var wire 32 q reg1_i [31:0] $end
$var wire 32 r mem_addr_o [31:0] $end
$var wire 32 s link_address_i [31:0] $end
$var wire 1 c is_load_o $end
$var wire 32 t inst_i [31:0] $end
$var wire 3 u alusel_i [2:0] $end
$var wire 8 v aluop_i [7:0] $end
$var reg 32 w arithmeticres [31:0] $end
$var reg 32 x logicout [31:0] $end
$var reg 32 y shiftres [31:0] $end
$var reg 5 z wd_o [4:0] $end
$var reg 32 { wdata_o [31:0] $end
$var reg 1 Y wreg_o $end
$upscope $end
$scope module ex_mem0 $end
$var wire 1 ! clk $end
$var wire 8 | ex_aluop [7:0] $end
$var wire 32 } ex_mem_addr [31:0] $end
$var wire 32 ~ ex_reg2 [31:0] $end
$var wire 5 !" ex_wd [4:0] $end
$var wire 32 "" ex_wdata [31:0] $end
$var wire 1 Y ex_wreg $end
$var wire 1 " rst $end
$var wire 6 #" stall [5:0] $end
$var reg 8 $" mem_aluop [7:0] $end
$var reg 32 %" mem_mem_addr [31:0] $end
$var reg 32 &" mem_reg2 [31:0] $end
$var reg 5 '" mem_wd [4:0] $end
$var reg 32 (" mem_wdata [31:0] $end
$var reg 1 F mem_wreg $end
$upscope $end
$scope module id0 $end
$var wire 1 c ex_is_load_i $end
$var wire 5 )" ex_wd_i [4:0] $end
$var wire 32 *" ex_wdata_i [31:0] $end
$var wire 1 Y ex_wreg_i $end
$var wire 32 +" inst_o [31:0] $end
$var wire 1 " rst $end
$var wire 32 ," u_type_imm [31:0] $end
$var wire 32 -" s_type_imm [31:0] $end
$var wire 5 ." rs2_addr [4:0] $end
$var wire 5 /" rs1_addr [4:0] $end
$var wire 32 0" reg2_data_i [31:0] $end
$var wire 32 1" reg1_data_i [31:0] $end
$var wire 5 2" rd_addr [4:0] $end
$var wire 32 3" pc_plus_j_type_imm [31:0] $end
$var wire 32 4" pc_plus_i_type_imm [31:0] $end
$var wire 32 5" pc_plus_8 [31:0] $end
$var wire 32 6" pc_plus_4 [31:0] $end
$var wire 32 7" pc_i [31:0] $end
$var wire 7 8" opcode [6:0] $end
$var wire 1 E mem_wreg_i $end
$var wire 32 9" mem_wdata_i [31:0] $end
$var wire 5 :" mem_wd_i [4:0] $end
$var wire 32 ;" j_type_imm [31:0] $end
$var wire 32 <" inst_i [31:0] $end
$var wire 32 =" i_type_imm [31:0] $end
$var wire 7 >" funct7 [6:0] $end
$var wire 3 ?" funct3 [2:0] $end
$var wire 32 @" b_type_imm [31:0] $end
$var reg 8 A" aluop_o [7:0] $end
$var reg 3 B" alusel_o [2:0] $end
$var reg 1 V branch_flag_o $end
$var reg 32 C" branch_target_address_o [31:0] $end
$var reg 32 D" imm [31:0] $end
$var reg 1 E" instvalid $end
$var reg 32 F" link_addr_o [31:0] $end
$var reg 5 G" reg1_addr_o [4:0] $end
$var reg 32 H" reg1_o [31:0] $end
$var reg 2 I" reg1_read_o [1:0] $end
$var reg 5 J" reg2_addr_o [4:0] $end
$var reg 32 K" reg2_o [31:0] $end
$var reg 2 L" reg2_read_o [1:0] $end
$var reg 1 M" stallreq_for_reg1 $end
$var reg 1 N" stallreq_for_reg2 $end
$var reg 1 9 stallreq_from_jump_branch $end
$var reg 1 8 stallreq_from_load $end
$var reg 5 O" wd_o [4:0] $end
$var reg 1 N wreg_o $end
$upscope $end
$scope module id_ex0 $end
$var wire 1 ! clk $end
$var wire 8 P" id_aluop [7:0] $end
$var wire 3 Q" id_alusel [2:0] $end
$var wire 32 R" id_inst [31:0] $end
$var wire 32 S" id_link_address [31:0] $end
$var wire 32 T" id_reg1 [31:0] $end
$var wire 32 U" id_reg2 [31:0] $end
$var wire 5 V" id_wd [4:0] $end
$var wire 1 N id_wreg $end
$var wire 1 " rst $end
$var wire 6 W" stall [5:0] $end
$var reg 8 X" ex_aluop [7:0] $end
$var reg 3 Y" ex_alusel [2:0] $end
$var reg 32 Z" ex_inst [31:0] $end
$var reg 32 [" ex_link_address [31:0] $end
$var reg 32 \" ex_reg1 [31:0] $end
$var reg 32 ]" ex_reg2 [31:0] $end
$var reg 5 ^" ex_wd [4:0] $end
$var reg 1 Z ex_wreg $end
$upscope $end
$scope module if_id0 $end
$var wire 1 ! clk $end
$var wire 32 _" if_inst [31:0] $end
$var wire 1 " rst $end
$var wire 6 `" stall [5:0] $end
$var wire 32 a" if_pc [31:0] $end
$var reg 32 b" id_inst [31:0] $end
$var reg 32 c" id_pc [31:0] $end
$upscope $end
$scope module mem1 $end
$var wire 8 d" aluop_i [7:0] $end
$var wire 32 e" mem_addr_i [31:0] $end
$var wire 32 f" mem_data_i [31:0] $end
$var wire 32 g" reg2_i [31:0] $end
$var wire 1 " rst $end
$var wire 5 h" wd_i [4:0] $end
$var wire 32 i" wdata_i [31:0] $end
$var wire 1 F wreg_i $end
$var reg 32 j" mem_addr_o [31:0] $end
$var reg 1 ( mem_ce_o $end
$var reg 32 k" mem_data_o [31:0] $end
$var reg 4 l" mem_sel_o [3:0] $end
$var reg 1 $ mem_we_o $end
$var reg 5 m" wd_o [4:0] $end
$var reg 32 n" wdata_o [31:0] $end
$var reg 1 E wreg_o $end
$upscope $end
$scope module mem_wb0 $end
$var wire 1 ! clk $end
$var wire 5 o" mem_wd [4:0] $end
$var wire 32 p" mem_wdata [31:0] $end
$var wire 1 E mem_wreg $end
$var wire 1 " rst $end
$var wire 6 q" stall [5:0] $end
$var reg 5 r" wb_wd [4:0] $end
$var reg 32 s" wb_wdata [31:0] $end
$var reg 1 5 wb_wreg $end
$upscope $end
$scope module pc_reg0 $end
$var wire 1 V branch_flag_i $end
$var wire 32 t" branch_target_address_i [31:0] $end
$var wire 1 ! clk $end
$var wire 1 " rst $end
$var wire 6 u" stall [5:0] $end
$var reg 1 # ce $end
$var reg 32 v" pc [31:0] $end
$upscope $end
$scope module regfile0 $end
$var wire 1 ! clk $end
$var wire 5 w" raddr1 [4:0] $end
$var wire 5 x" raddr2 [4:0] $end
$var wire 2 y" re1 [1:0] $end
$var wire 2 z" re2 [1:0] $end
$var wire 1 " rst $end
$var wire 5 {" waddr [4:0] $end
$var wire 32 |" wdata [31:0] $end
$var wire 1 5 we $end
$var reg 32 }" rdata1 [31:0] $end
$var reg 32 ~" rdata2 [31:0] $end
$upscope $end
$upscope $end
$upscope $end
$upscope $end
$enddefinitions $end
#0
$dumpvars
b0 ~"
b0 }"
bx |"
bx {"
b1 z"
b1 y"
b0 x"
b0 w"
bx v"
b0 u"
b0 t"
bx s"
bx r"
b0 q"
b0 p"
b0 o"
b0 n"
b0 m"
b0 l"
b0 k"
b0 j"
bx i"
bx h"
bx g"
b0 f"
bx e"
bx d"
bx c"
bx b"
bx a"
b0 `"
bx _"
bx ^"
bx ]"
bx \"
bx ["
bx Z"
bx Y"
bx X"
b0 W"
b0 V"
b0 U"
b0 T"
b0 S"
bx R"
b0 Q"
b0 P"
b0 O"
0N"
0M"
b1 L"
b0 K"
b0 J"
b1 I"
b0 H"
b0 G"
b0 F"
0E"
b0 D"
b0 C"
b0 B"
b0 A"
bx0 @"
bx ?"
bx >"
bx ="
bx <"
bx0 ;"
b0 :"
b0 9"
bx 8"
bx 7"
bx 6"
bx 5"
bx 4"
bx 3"
bx 2"
b0 1"
b0 0"
bx /"
bx ."
bx -"
bx000000000000 ,"
bx +"
b0 *"
bx )"
bx ("
bx '"
bx &"
bx %"
bx $"
b0 #"
b0 ""
bx !"
bx ~
bx }
bx |
b0 {
bx z
b0 y
b0 x
b0 w
bx v
bx u
bx t
bx s
bx r
bx q
xp
bx o
bx n
bx m
bx l
bx k
bx j
b0 i
b0 h
bx g
bx f
bx e
bx d
xc
bx b
bx a
bx `
bx _
bx ^
bx ]
bx \
b0 [
xZ
xY
b0 X
b0 W
0V
bx U
bx T
b0 S
bx R
b0 Q
b0 P
b0 O
0N
bx M
bx L
bx K
bx J
b0 I
bx H
b0 G
xF
0E
bx D
b0 C
b0 B
b0 A
b0 @
b0 ?
b1 >
b0 =
b0 <
b1 ;
b0 :
09
08
bx 7
bx 6
x5
bx 4
bx 3
b0 2
bx 1
bx 0
b0 /
b0 .
b0 -
b0 ,
bx +
bx *
b0 )
0(
b0 '
b0 &
b0 %
0$
x#
1"
0!
$end
#10000
b0 +
b0 1
b0 4
b0 _"
0Y
b0 \
b0 z
b0 !"
b0 )"
b0 3"
b0 ;"
b0 ,"
b0 @"
b0 -"
b0 4"
b0 ="
b0 8"
b0 2"
b0 ?"
b0 /"
b0 ."
b0 >"
b0 m
b0 n
0p
0#
b0 T
b0 +"
b0 R"
b0 U
b0 <"
b0 b"
b100 6"
b1000 5"
b0 R
b0 7"
b0 c"
0Z
b0 ]
b0 l
b0 ^"
b0 ^
b0 k
b0 ~
b0 _
b0 o
b0 ]"
b0 `
b0 q
b0 \"
b0 e
b0 u
b0 Y"
b0 f
b0 j
b0 |
b0 g
b0 v
b0 X"
b0 K
b0 &"
b0 g"
b0 L
b0 %"
b0 e"
b0 M
b0 $"
b0 d"
b0 H
b0 ("
b0 i"
0F
b0 J
b0 '"
b0 h"
b0 6
b0 s"
b0 |"
05
b0 7
b0 r"
b0 {"
1!
#20000
0!
#30000
b0 *
b0 0
b0 3
b0 D
b0 a"
b0 v"
1!
#40000
0!
#50000
1!
#60000
0!
#70000
1!
#80000
0!
#90000
1!
#100000
0!
#110000
1!
#120000
0!
#130000
1!
#140000
0!
#150000
1!
#160000
0!
#170000
1!
#180000
0!
#190000
1!
#195000
1E"
0"
#200000
0!
#210000
b10000000000000000000000110110111 +
b10000000000000000000000110110111 1
b10000000000000000000000110110111 4
b10000000000000000000000110110111 _"
0c
b0 a
b0 r
b0 }
1#
b0 d
b0 t
b0 Z"
b0 b
b0 s
b0 ["
bx L
bx %"
bx e"
1!
#220000
0!
#230000
b10000000000000000000000000000000 P
b10000000000000000000000000000000 K"
b10000000000000000000000000000000 U"
0E"
b10000000000000000000000000000000 D"
b11 >
b11 I"
b11 y"
b1 W
b1 B"
b1 Q"
b10 X
b10 A"
b10 P"
1N
b11 O
b11 O"
b11 V"
b100000110000010010011 +
b100000110000010010011 1
b100000110000010010011 4
b100000110000010010011 _"
b11111111111100000000000000000000 3"
b11111111111100000000000000000000 ;"
b10000000000000000000000000000000 ,"
b11111111111111111111100000000010 @"
b11111111111111111111100000000011 -"
b11111111111111111111100000000000 4"
b11111111111111111111100000000000 ="
b110111 8"
b11 2"
b1000000 >"
b0 L
b0 %"
b0 e"
b10000000000000000000000110110111 T
b10000000000000000000000110110111 +"
b10000000000000000000000110110111 R"
b10000000000000000000000110110111 U
b10000000000000000000000110110111 <"
b10000000000000000000000110110111 b"
b100 *
b100 0
b100 3
b100 D
b100 a"
b100 v"
1!
#240000
0!
#250000
b1 P
b1 K"
b1 U"
b10000000000000000000000000000000 [
b10000000000000000000000000000000 {
b10000000000000000000000000000000 ""
b10000000000000000000000000000000 *"
b1 =
b1 J"
b1 x"
b1 O
b1 O"
b1 V"
b110000000000000001101111 +
b110000000000000001101111 1
b110000000000000001101111 4
b110000000000000001101111 _"
b1 D"
b0 >
b0 I"
b0 y"
0E"
1N
b1 W
b1 B"
b1 Q"
b10 X
b10 A"
b10 P"
1Y
b11 \
b11 z
b11 !"
b11 )"
b10000000000000000000000000000000 x
b11111111111111111111100000000011 a
b11111111111111111111100000000011 r
b11111111111111111111100000000011 }
b110100000000000 ;"
b100000110000000000000 ,"
b100000000000 @"
b1 -"
b1 ="
b10011 8"
b1 2"
b110 ?"
b1 ."
b0 >"
1p
b10000000000000000000000000000000 m
b10000000000000000000000000000000 n
b1000 *
b1000 0
b1000 3
b1000 D
b1000 a"
b1000 v"
b100000110000010010011 T
b100000110000010010011 +"
b100000110000010010011 R"
b100000110000010010011 U
b100000110000010010011 <"
b100000110000010010011 b"
b110100000000100 3"
b101 4"
b1000 6"
b1100 5"
b100 R
b100 7"
b100 c"
b10000000000000000000000110110111 d
b10000000000000000000000110110111 t
b10000000000000000000000110110111 Z"
1Z
b11 ]
b11 l
b11 ^"
b10000000000000000000000000000000 ^
b10000000000000000000000000000000 k
b10000000000000000000000000000000 ~
b10000000000000000000000000000000 _
b10000000000000000000000000000000 o
b10000000000000000000000000000000 ]"
b1 e
b1 u
b1 Y"
b10 f
b10 j
b10 |
b10 g
b10 v
b10 X"
1!
#260000
0!
#270000
b10 :
b10 i
b10 #"
b10 W"
b10 `"
b10 q"
b10 u"
b1 [
b1 {
b1 ""
b1 *"
b0 P
b0 K"
b0 U"
b10100 h
b10100 C"
b10100 t"
1V
b1100 S
b1100 F"
b1100 S"
19
b1100 =
b1100 J"
b1100 x"
b0 O
b0 O"
b0 V"
b10000000000000000000000000000000 G
b10000000000000000000000000000000 9"
b10000000000000000000000000000000 n"
b10000000000000000000000000000000 p"
1E
b11 I
b11 :"
b11 m"
b11 o"
b1 \
b1 z
b1 !"
b1 )"
b1 x
b0 D"
b1 >
b1 I"
b1 y"
0E"
1N
b110 W
b110 B"
b110 Q"
b1110 X
b1110 A"
b1110 P"
b10001000100000110000010010011 +
b10001000100000110000010010011 1
b10001000100000110000010010011 4
b10001000100000110000010010011 _"
b1 a
b1 r
b1 }
b1 m
b1 n
b1100 ;"
b110000000000000000000000 ,"
b0 @"
b0 -"
b1100 ="
b1101111 8"
b0 2"
b0 ?"
b1100 ."
b10000000000000000000000000000000 K
b10000000000000000000000000000000 &"
b10000000000000000000000000000000 g"
b11111111111111111111100000000011 L
b11111111111111111111100000000011 %"
b11111111111111111111100000000011 e"
b10 M
b10 $"
b10 d"
b10000000000000000000000000000000 H
b10000000000000000000000000000000 ("
b10000000000000000000000000000000 i"
1F
b11 J
b11 '"
b11 h"
b100000110000010010011 d
b100000110000010010011 t
b100000110000010010011 Z"
b1 ]
b1 l
b1 ^"
b1 ^
b1 k
b1 ~
b1 _
b1 o
b1 ]"
b110000000000000001101111 T
b110000000000000001101111 +"
b110000000000000001101111 R"
b110000000000000001101111 U
b110000000000000001101111 <"
b110000000000000001101111 b"
b10100 3"
b10100 4"
b1100 6"
b10000 5"
b1000 R
b1000 7"
b1000 c"
b1100 *
b1100 0
b1100 3
b1100 D
b1100 a"
b1100 v"
1!
#280000
0!
#290000
b0 :
b0 i
b0 #"
b0 W"
b0 `"
b0 q"
b0 u"
b0 =
b0 J"
b0 x"
b1000000110000010010011 +
b1000000110000010010011 1
b1000000110000010010011 4
b1000000110000010010011 _"
0V
b0 h
b0 C"
b0 t"
b0 S
b0 F"
b0 S"
09
1E"
0N
b0 W
b0 B"
b0 Q"
b0 X
b0 A"
b0 P"
b1100 [
b1100 {
b1100 ""
b1100 *"
b0 \
b0 z
b0 !"
b0 )"
b0 x
b1 G
b1 9"
b1 n"
b1 p"
b1 I
b1 :"
b1 m"
b1 o"
b0 a
b0 r
b0 }
b0 ;"
b0 ,"
b0 ="
b0 8"
b0 ."
0p
b0 m
b0 n
b10100 *
b10100 0
b10100 3
b10100 D
b10100 a"
b10100 v"
b0 T
b0 +"
b0 R"
b0 U
b0 <"
b0 b"
b0 3"
b0 4"
b100 6"
b1000 5"
b0 R
b0 7"
b0 c"
b110000000000000001101111 d
b110000000000000001101111 t
b110000000000000001101111 Z"
b1100 b
b1100 s
b1100 ["
b0 ]
b0 l
b0 ^"
b0 ^
b0 k
b0 ~
b0 _
b0 o
b0 ]"
b110 e
b110 u
b110 Y"
b1110 f
b1110 j
b1110 |
b1110 g
b1110 v
b1110 X"
b1 K
b1 &"
b1 g"
b1 L
b1 %"
b1 e"
b1 H
b1 ("
b1 i"
b1 J
b1 '"
b1 h"
b10000000000000000000000000000000 6
b10000000000000000000000000000000 s"
b10000000000000000000000000000000 |"
15
b11 7
b11 r"
b11 {"
1!
#300000
0!
#310000
b10 P
b10 K"
b10 U"
b10 D"
b1 W
b1 B"
b1 Q"
b10 X
b10 A"
b10 P"
0E"
b0 >
b0 I"
b0 y"
1N
b10 =
b10 J"
b10 x"
b1 O
b1 O"
b1 V"
b1100 G
b1100 9"
b1100 n"
b1100 p"
b0 I
b0 :"
b0 m"
b0 o"
b0 [
b0 {
b0 ""
b0 *"
0Y
b1100000000000001011101111 +
b1100000000000001011101111 1
b1100000000000001011101111 4
b1100000000000001011101111 _"
b110000000000010 ;"
b1000000110000000000000 ,"
b100000000000 @"
b1 -"
b10 ="
b10011 8"
b1 2"
b110 ?"
b10 ."
b1 6
b1 s"
b1 |"
b1 7
b1 r"
b1 {"
b0 K
b0 &"
b0 g"
b0 L
b0 %"
b0 e"
b1110 M
b1110 $"
b1110 d"
b1100 H
b1100 ("
b1100 i"
b0 J
b0 '"
b0 h"
b0 d
b0 t
b0 Z"
b0 b
b0 s
b0 ["
0Z
b0 e
b0 u
b0 Y"
b0 f
b0 j
b0 |
b0 g
b0 v
b0 X"
b1000000110000010010011 T
b1000000110000010010011 +"
b1000000110000010010011 R"
b1000000110000010010011 U
b1000000110000010010011 <"
b1000000110000010010011 b"
b110000000010110 3"
b10110 4"
b11000 6"
b11100 5"
b10100 R
b10100 7"
b10100 c"
b11000 *
b11000 0
b11000 3
b11000 D
b11000 a"
b11000 v"
1!
#320000
0!
#330000
b10 :
b10 i
b10 #"
b10 W"
b10 `"
b10 q"
b10 u"
b10 [
b10 {
b10 ""
b10 *"
b0 P
b0 K"
b0 U"
b110000 h
b110000 C"
b110000 t"
1V
b11100 S
b11100 F"
b11100 S"
19
b11000 =
b11000 J"
b11000 x"
b101 O
b101 O"
b101 V"
b10001000000000110000010010011 +
b10001000000000110000010010011 1
b10001000000000110000010010011 4
b10001000000000110000010010011 _"
b0 D"
b1 >
b1 I"
b1 y"
0E"
1N
b110 W
b110 B"
b110 Q"
b1110 X
b1110 A"
b1110 P"
1Y
b1 \
b1 z
b1 !"
b1 )"
b10 x
b0 G
b0 9"
b0 n"
b0 p"
0E
b1 a
b1 r
b1 }
b11000 ;"
b1100000000000000000000000 ,"
b100000000100 @"
b101 -"
b11000 ="
b1101111 8"
b101 2"
b0 ?"
b11000 ."
1p
b10 m
b10 n
b11100 *
b11100 0
b11100 3
b11100 D
b11100 a"
b11100 v"
b1100000000000001011101111 T
b1100000000000001011101111 +"
b1100000000000001011101111 R"
b1100000000000001011101111 U
b1100000000000001011101111 <"
b1100000000000001011101111 b"
b110000 3"
b110000 4"
b11100 6"
b100000 5"
b11000 R
b11000 7"
b11000 c"
b1000000110000010010011 d
b1000000110000010010011 t
b1000000110000010010011 Z"
1Z
b1 ]
b1 l
b1 ^"
b10 ^
b10 k
b10 ~
b10 _
b10 o
b10 ]"
b1 e
b1 u
b1 Y"
b10 f
b10 j
b10 |
b10 g
b10 v
b10 X"
b0 M
b0 $"
b0 d"
b0 H
b0 ("
b0 i"
0F
b1100 6
b1100 s"
b1100 |"
b0 7
b0 r"
b0 {"
1!
#340000
0!
#350000
b0 :
b0 i
b0 #"
b0 W"
b0 `"
b0 q"
b0 u"
b0 =
b0 J"
b0 x"
b0 O
b0 O"
b0 V"
b10 G
b10 9"
b10 n"
b10 p"
1E
b1 I
b1 :"
b1 m"
b1 o"
b11100 [
b11100 {
b11100 ""
b11100 *"
b101 \
b101 z
b101 !"
b101 )"
b0 x
0V
b0 h
b0 C"
b0 t"
b0 S
b0 F"
b0 S"
09
1E"
0N
b0 W
b0 B"
b0 Q"
b0 X
b0 A"
b0 P"
b1100000110000010010011 +
b1100000110000010010011 1
b1100000110000010010011 4
b1100000110000010010011 _"
b101 a
b101 r
b101 }
0p
b0 m
b0 n
b0 ;"
b0 ,"
b0 @"
b0 -"
b0 ="
b0 8"
b0 2"
b0 ."
b0 6
b0 s"
b0 |"
05
b10 K
b10 &"
b10 g"
b1 L
b1 %"
b1 e"
b10 M
b10 $"
b10 d"
b10 H
b10 ("
b10 i"
1F
b1 J
b1 '"
b1 h"
b1100000000000001011101111 d
b1100000000000001011101111 t
b1100000000000001011101111 Z"
b11100 b
b11100 s
b11100 ["
b101 ]
b101 l
b101 ^"
b0 ^
b0 k
b0 ~
b0 _
b0 o
b0 ]"
b110 e
b110 u
b110 Y"
b1110 f
b1110 j
b1110 |
b1110 g
b1110 v
b1110 X"
b0 T
b0 +"
b0 R"
b0 U
b0 <"
b0 b"
b0 3"
b0 4"
b100 6"
b1000 5"
b0 R
b0 7"
b0 c"
b110000 *
b110000 0
b110000 3
b110000 D
b110000 a"
b110000 v"
1!
#360000
0!
#370000
b11 P
b11 K"
b11 U"
b11 D"
b1 W
b1 B"
b1 Q"
b10 X
b10 A"
b10 P"
0E"
b0 >
b0 I"
b0 y"
1N
b11 =
b11 J"
b11 x"
b1 O
b1 O"
b1 V"
b101110000100110011 +
b101110000100110011 1
b101110000100110011 4
b101110000100110011 _"
b0 [
b0 {
b0 ""
b0 *"
0Y
b0 \
b0 z
b0 !"
b0 )"
b11100 G
b11100 9"
b11100 n"
b11100 p"
b101 I
b101 :"
b101 m"
b101 o"
b0 a
b0 r
b0 }
b110100000000010 ;"
b1100000110000000000000 ,"
b100000000000 @"
b1 -"
b11 ="
b10011 8"
b1 2"
b110 ?"
b11 ."
b110100 *
b110100 0
b110100 3
b110100 D
b110100 a"
b110100 v"
b1100000110000010010011 T
b1100000110000010010011 +"
b1100000110000010010011 R"
b1100000110000010010011 U
b1100000110000010010011 <"
b1100000110000010010011 b"
b110100000110010 3"
b110011 4"
b110100 6"
b111000 5"
b110000 R
b110000 7"
b110000 c"
b0 d
b0 t
b0 Z"
b0 b
b0 s
b0 ["
0Z
b0 ]
b0 l
b0 ^"
b0 e
b0 u
b0 Y"
b0 f
b0 j
b0 |
b0 g
b0 v
b0 X"
b0 K
b0 &"
b0 g"
b101 L
b101 %"
b101 e"
b1110 M
b1110 $"
b1110 d"
b11100 H
b11100 ("
b11100 i"
b101 J
b101 '"
b101 h"
b10 6
b10 s"
b10 |"
15
b1 7
b1 r"
b1 {"
1!
#380000
0!
#390000
b11100 Q
b11100 H"
b11100 T"
b11 [
b11 {
b11 ""
b11 *"
b0 P
b0 K"
b0 U"
b11100 ?
b11100 1"
b11100 }"
b0 ;
b0 L"
b0 z"
b0 =
b0 J"
b0 x"
b101 @
b101 G"
b101 w"
b10 O
b10 O"
b10 V"
b0 G
b0 9"
b0 n"
b0 p"
0E
b0 I
b0 :"
b0 m"
b0 o"
1Y
b1 \
b1 z
b1 !"
b1 )"
b11 x
b0 D"
b0 >
b0 I"
b0 y"
0E"
1N
b1 W
b1 B"
b1 Q"
b10 X
b10 A"
b10 P"
b100001100011000000001100011 +
b100001100011000000001100011 1
b100001100011000000001100011 4
b100001100011000000001100011 _"
b1 a
b1 r
b1 }
1p
b11 m
b11 n
b101110000000000000 ;"
b101110000000000000 ,"
b10 @"
b10 -"
b0 ="
b110011 8"
b10 2"
b101 /"
b0 ."
b11100 6
b11100 s"
b11100 |"
b101 7
b101 r"
b101 {"
b0 L
b0 %"
b0 e"
b0 M
b0 $"
b0 d"
b0 H
b0 ("
b0 i"
0F
b0 J
b0 '"
b0 h"
b1100000110000010010011 d
b1100000110000010010011 t
b1100000110000010010011 Z"
1Z
b1 ]
b1 l
b1 ^"
b11 ^
b11 k
b11 ~
b11 _
b11 o
b11 ]"
b1 e
b1 u
b1 Y"
b10 f
b10 j
b10 |
b10 g
b10 v
b10 X"
b101110000100110011 T
b101110000100110011 +"
b101110000100110011 R"
b101110000100110011 U
b101110000100110011 <"
b101110000100110011 b"
b101110000000110100 3"
b110100 4"
b111000 6"
b111100 5"
b110100 R
b110100 7"
b110100 c"
b111000 *
b111000 0
b111000 3
b111000 D
b111000 a"
b111000 v"
1!
#400000
0!
